139:18 155:29 262:22 717:21 
26:21 56:37 427:28 448:23 923:27 
0:32 67:25 168:24 170:34 242:21 605:35 995:26 
102:28 144:33 149:24 225:25 481:31 577:32 639:22 690:24 710:22 718:36 868:32 922:35 934:34 966:32 
116:29 253:27 319:19 324:18 368:36 470:34 518:19 618:24 619:19 730:33 737:22 751:27 867:29 891:33 959:33 
32:22 110:18 185:23 229:23 242:18 355:23 388:20 501:30 512:24 630:35 989:22 
342:32 445:27 599:28 
78:32 146:30 186:23 221:27 267:28 271:17 308:23 365:21 500:29 589:18 733:31 810:32 864:29 
87:25 141:27 143:35 297:27 345:26 352:22 363:24 390:25 524:25 690:29 826:24 959:19 
2:22 118:26 144:26 168:31 186:23 234:21 288:24 384:21 596:26 680:36 739:29 789:33 816:26 895:20 
31:26 49:22 111:26 115:22 441:21 612:30 801:17 878:20 914:26 
10:22 14:26 26:36 36:21 110:25 117:36 170:25 210:27 285:36 308:36 498:29 507:28 664:29 755:23 814:23 847:31 891:27 893:25 922:17 
66:23 88:17 219:20 265:23 403:27 439:24 549:25 561:34 997:28 
14:23 38:29 194:24 279:27 376:29 425:28 470:28 544:29 
49:12 214:21 288:25 416:24 494:31 732:22 778:25 831:31 918:23 979:28 980:27 
0:38 67:18 286:23 543:17 582:31 600:30 653:24 663:26 850:29 910:18 945:27 951:22 985:29 
56:30 178:18 191:24 229:26 294:18 396:23 401:25 463:27 542:26 607:30 749:29 788:21 849:25 917:21 
18:23 185:24 210:24 269:39 552:25 574:28 649:29 663:30 720:31 800:26 959:32 
18:31 120:27 186:18 218:25 221:23 292:24 427:24 598:29 
288:26 310:21 346:26 389:24 477:28 552:26 786:28 898:16 
178:25 504:22 832:18 932:21 967:26 
60:28 322:24 378:27 425:21 427:27 435:21 544:27 612:32 701:27 750:21 792:21 797:29 878:30 928:30 
14:19 16:21 85:30 86:23 110:33 111:24 335:25 504:27 599:23 638:31 668:24 690:25 821:28 829:34 864:22 880:33 
162:37 189:22 262:25 292:34 321:22 359:38 408:27 700:23 857:26 878:25 898:21 932:31 
204:32 210:25 262:22 524:38 555:37 589:19 657:25 749:23 797:26 886:34 
32:31 74:27 187:34 194:19 244:22 
460:18 574:38 679:26 738:25 805:23 
18:29 43:34 67:34 111:17 248:21 516:20 593:26 595:29 749:28 755:20 868:28 915:17 
138:22 218:25 268:18 324:20 396:32 426:28 595:20 596:23 739:22 768:21 826:24 988:33 
24:27 28:18 162:26 234:34 239:27 269:26 321:25 395:21 424:26 662:28 741:25 984:21 
504:21 709:21 733:19 755:27 774:20 
12:29 54:23 86:18 99:23 293:33 394:25 406:24 408:36 448:30 494:17 569:20 602:28 625:25 641:37 735:26 878:41 
285:20 319:21 395:13 492:23 523:31 529:25 670:25 971:27 
117:28 181:25 244:21 630:27 706:13 
54:18 67:31 99:23 146:25 189:25 318:40 387:19 589:27 737:32 981:31 
113:29 413:21 431:22 514:22 718:33 776:23 914:26 
30:26 195:29 230:34 443:27 472:23 680:22 733:28 
305:25 449:23 496:21 605:24 
74:25 425:17 431:34 676:26 709:26 739:35 992:27 
43:25 194:31 252:29 449:33 595:31 
18:30 128:24 134:21 154:28 261:26 276:18 375:28 408:20 800:19 959:30 
18:33 210:19 279:21 552:25 720:22 773:21 821:40 
6:29 26:38 54:30 91:20 345:24 458:40 466:24 591:34 607:26 619:21 654:40 664:26 724:23 792:17 807:26 810:25 828:16 866:32 
124:32 288:28 474:21 593:23 
56:23 623:20 737:16 766:22 906:22 
21:19 103:27 144:29 186:24 244:25 279:29 381:26 408:23 550:26 565:27 677:21 877:24 
19:18 346:25 390:38 427:26 429:23 452:24 597:24 618:20 831:21 900:25 
30:20 285:29 319:34 396:37 569:34 577:22 656:24 945:26 
161:19 162:24 170:19 210:31 266:30 531:29 614:30 641:25 749:29 779:23 852:27 980:20 
307:30 308:25 589:24 653:30 932:21 959:16 
2:34 37:33 129:27 132:23 141:25 196:20 209:24 331:25 384:23 417:28 498:29 601:34 824:28 925:29 958:31 
16:26 18:31 56:25 166:14 305:31 457:25 489:25 550:24 605:24 622:30 639:33 692:24 721:28 917:24 938:34 939:26 
102:29 117:26 227:28 261:29 318:26 460:29 533:32 618:25 689:32 690:29 711:20 737:23 807:37 828:21 
49:22 50:32 660:18 709:23 852:24 889:22 891:31 892:34 918:33 934:32 941:27 
336:23 351:35 550:33 552:17 670:28 696:34 
218:22 420:20 521:19 542:19 843:25 
0:18 6:23 48:32 142:19 185:33 245:23 279:26 304:16 322:22 403:29 448:20 515:22 542:25 733:25 764:28 866:21 935:29 945:29 
141:18 359:20 396:22 618:23 
24:28 30:14 100:25 111:28 172:27 279:22 408:31 482:24 522:35 541:34 773:38 801:21 878:27 879:25 908:24 
26:23 111:30 274:25 577:23 578:27 595:25 636:32 749:32 778:21 828:22 872:25 984:30 
102:28 207:27 315:14 396:27 474:22 511:30 692:28 769:23 
429:26 567:32 615:22 827:25 829:29 857:24 
190:24 318:36 323:29 419:22 623:15 851:27 854:20 925:27 977:38 994:33 
28:23 141:28 210:21 307:23 395:29 405:25 408:31 540:33 648:22 771:23 875:27 
2:32 67:34 117:20 154:28 187:31 207:30 223:22 315:24 454:30 496:38 532:25 587:28 599:29 601:23 909:20 
108:28 111:18 134:22 202:23 226:29 262:30 288:30 315:36 676:27 733:30 749:31 783:29 792:27 859:26 861:27 935:25 959:20 
14:20 44:24 108:35 132:38 146:26 170:17 410:26 844:21 934:21 
28:24 133:19 147:26 191:33 242:28 261:30 269:18 395:27 448:34 456:26 542:30 708:27 853:21 880:28 
562:26 617:34 813:27 978:28 
14:22 67:29 72:22 403:15 464:34 482:33 539:18 542:27 623:29 667:26 779:22 783:35 
144:23 186:22 277:30 322:21 496:22 598:27 667:28 704:16 739:24 792:26 917:22 
86:27 164:24 181:21 308:32 458:30 549:28 690:15 739:25 744:34 847:28 928:26 
44:26 149:30 199:30 241:21 245:25 279:34 292:22 331:29 478:28 614:27 688:23 703:27 778:28 813:26 918:25 
41:26 207:22 331:36 368:20 408:32 641:18 
116:26 221:31 261:21 265:36 292:18 313:24 315:24 406:22 550:15 563:19 609:25 837:31 875:33 
14:17 143:26 279:28 338:27 491:31 802:33 891:33 928:26 
1:26 39:25 48:26 131:31 194:31 276:27 322:18 407:16 
78:19 111:26 141:25 269:20 321:23 348:26 419:20 437:38 589:18 709:26 798:30 806:26 905:30 
110:24 151:29 207:24 253:35 307:21 359:34 623:21 677:22 
191:32 356:21 365:29 406:30 428:25 523:21 589:23 649:29 711:24 749:27 814:25 916:19 
28:32 492:26 706:22 806:33 
34:32 162:21 308:22 524:29 541:30 
356:28 406:27 428:27 589:26 649:27 711:23 749:21 814:20 916:23 
86:25 119:26 192:26 244:30 246:25 308:29 315:36 376:37 406:28 492:27 501:28 523:34 564:27 909:22 919:23 987:33 
18:26 552:23 717:26 801:27 
34:24 115:28 170:19 351:32 978:26 
1:21 90:36 322:32 389:29 431:23 559:23 702:24 737:28 946:29 
34:21 87:38 110:32 152:24 186:24 307:28 512:26 552:26 587:27 648:25 718:22 737:35 
91:22 246:27 281:23 342:20 400:35 419:30 470:26 512:19 764:41 923:25 981:28 
48:30 301:33 449:30 527:29 599:22 601:24 612:21 694:35 829:27 880:23 919:20 
14:23 60:28 234:29 429:28 565:34 659:24 663:27 828:20 829:32 
81:23 90:26 136:24 139:27 242:18 403:30 542:31 600:21 720:30 827:31 876:25 
46:35 48:21 152:30 267:38 523:24 574:16 733:27 864:18 900:18 
163:29 523:22 608:29 725:24 742:26 781:32 912:32 
8:21 21:23 23:32 322:27 445:20 514:32 518:30 542:25 719:25 743:34 932:26 951:20 966:27 
2:17 35:28 54:21 192:30 233:19 313:20 317:24 797:21 840:29 925:29 
134:19 152:25 276:31 288:27 425:24 471:23 482:26 613:23 861:22 
49:33 121:32 218:26 244:22 336:22 562:36 805:20 847:25 930:31 990:20 
29:20 85:19 316:23 466:31 680:24 772:26 858:18 
60:23 632:19 698:25 857:21 945:33 
60:27 190:23 288:22 307:22 366:25 368:32 387:24 396:25 404:31 654:31 741:23 752:33 805:31 871:23 889:31 952:18 
8:21 308:25 331:20 471:23 494:21 616:34 623:24 824:24 898:26 925:31 994:16 
14:29 218:30 366:33 396:24 409:30 426:26 601:30 669:22 734:24 826:32 
2:22 32:17 48:28 593:22 851:28 860:28 957:32 
69:20 141:18 163:23 401:20 420:19 459:26 593:25 739:16 946:30 947:19 
6:24 18:28 34:36 57:31 310:26 348:21 423:24 477:23 500:26 733:25 917:22 
4:26 63:15 162:26 239:22 318:19 331:17 416:22 457:30 460:27 552:24 704:28 857:24 916:17 
37:28 111:32 215:27 305:36 539:20 597:25 774:32 802:23 895:29 898:24 
37:32 72:27 90:22 94:27 378:30 408:30 443:31 478:23 500:20 593:26 679:28 704:25 720:29 749:30 874:23 917:28 
18:21 114:26 185:30 345:19 609:16 738:26 825:27 871:28 895:36 
34:33 209:39 472:21 
116:34 322:26 743:22 778:22 857:19 963:26 
12:26 218:28 300:25 319:31 408:29 443:30 593:23 596:29 773:22 934:18 
19:24 30:32 56:18 119:26 221:20 309:26 376:26 489:24 653:30 749:30 792:18 800:33 843:29 
5:28 141:27 163:23 239:31 449:32 699:26 750:23 959:27 
14:22 18:25 49:24 100:26 186:23 221:28 242:27 244:26 318:26 331:31 335:25 364:22 691:25 769:30 778:27 798:26 813:33 909:22 
108:19 117:29 234:30 255:24 348:30 351:21 514:30 672:21 701:18 875:27 889:27 
184:23 313:33 441:25 600:25 663:29 747:33 755:33 928:23 
190:23 397:30 554:30 
75:26 144:20 146:28 184:24 262:21 276:26 308:22 441:23 636:18 742:35 791:22 878:21 
74:31 159:28 179:16 244:26 310:21 321:31 567:21 582:22 596:28 680:29 701:21 878:27 
49:24 87:21 244:24 427:23 524:21 685:21 701:20 733:27 790:26 
4:24 63:21 792:20 
14:32 46:21 122:31 170:24 416:20 478:32 549:27 599:27 641:14 652:24 776:34 792:19 808:25 877:27 886:20 895:21 931:24 
13:24 145:26 186:24 304:32 313:27 543:24 617:24 636:32 654:21 709:20 766:19 846:21 878:26 948:21 
115:24 214:27 261:28 266:28 307:23 599:20 664:32 766:21 931:28 963:21 
72:34 103:22 160:29 321:26 452:31 460:32 660:28 662:24 842:25 912:20 
1:34 100:27 192:26 262:29 479:26 608:24 744:29 833:30 938:38 
2:25 56:18 111:28 123:23 270:24 384:26 458:19 497:30 642:23 685:28 914:23 
11:22 18:30 215:25 261:32 542:27 796:28 
704:28 
81:32 324:28 408:27 542:27 545:23 550:21 749:21 874:25 876:28 896:26 917:19 
94:31 146:21 167:21 267:21 389:23 436:21 593:36 630:26 799:27 917:26 939:30 951:28 970:23 
286:26 310:29 336:30 431:21 444:31 526:18 539:28 545:23 558:34 593:28 868:34 875:39 920:29 944:25 
78:25 79:25 94:27 184:33 186:24 221:28 227:25 313:33 351:29 394:30 898:23 
111:32 121:23 131:22 318:25 364:25 567:32 616:22 653:19 751:25 
117:28 152:30 524:26 608:19 621:34 803:24 829:34 896:17 899:32 
93:20 315:28 527:23 934:32 981:25 
43:34 186:31 338:25 456:19 614:19 905:20 
292:20 569:22 641:41 750:15 833:31 882:23 932:33 
15:26 188:23 345:28 357:23 577:26 614:29 819:32 873:27 890:26 964:24 
14:21 191:24 288:27 451:23 
16:25 163:21 400:27 438:23 805:25 828:28 
93:18 117:31 152:32 188:27 265:19 321:20 552:24 653:29 741:28 783:33 829:32 899:28 993:24 
110:21 138:25 315:30 344:21 567:32 628:22 691:23 701:15 709:20 850:29 958:19 
42:23 56:28 111:33 323:30 328:27 375:28 403:30 473:27 478:26 633:26 683:28 749:37 751:21 761:33 992:18 
12:16 86:21 191:24 308:20 323:26 346:25 433:27 514:17 656:19 783:19 
18:22 31:35 111:26 117:30 186:37 308:31 368:29 459:23 536:28 645:33 742:31 755:34 851:28 859:23 905:31 
6:24 123:22 190:28 261:33 288:19 324:31 370:20 423:21 430:22 448:27 595:34 676:30 704:30 898:30 946:26 
90:26 187:20 319:26 349:23 403:30 427:36 485:26 520:19 657:20 704:16 720:25 939:25 981:22 
62:30 140:29 210:20 315:24 349:29 603:23 709:21 740:30 773:20 905:25 972:30 980:25 
49:19 115:26 387:29 449:24 
67:21 307:30 542:22 567:22 741:26 852:23 915:22 
32:35 34:21 74:31 194:25 218:26 235:15 305:18 307:26 605:34 618:27 624:33 881:29 959:28 
44:27 103:33 427:28 565:27 773:29 821:25 
159:31 253:19 322:24 330:26 521:26 750:26 815:35 942:23 992:29 
6:26 75:26 166:25 188:32 345:22 498:18 861:25 959:26 981:20 
112:25 262:22 308:29 409:36 507:27 567:20 617:33 723:27 791:22 
492:30 524:30 562:23 733:27 
170:34 254:31 472:23 593:29 691:27 692:33 709:21 735:39 859:25 878:22 
191:26 219:25 321:22 349:24 451:29 501:24 542:22 569:35 582:29 766:17 828:17 
60:21 86:15 401:22 536:29 552:25 683:31 744:33 751:23 922:23 
324:19 843:23 893:23 
185:27 215:26 315:23 318:21 
445:21 514:31 613:28 713:27 782:19 874:21 
315:35 413:25 589:15 607:19 847:21 
42:22 56:31 163:24 221:29 239:24 290:29 293:29 307:39 459:27 664:25 672:17 783:24 
141:26 158:18 159:23 188:22 202:30 222:30 403:30 531:29 559:28 577:23 593:19 616:26 748:27 783:27 875:32 951:23 
324:25 677:26 737:20 812:23 946:35 
276:31 428:17 493:29 501:19 553:23 984:22 
91:25 281:25 400:27 419:33 512:24 981:32 
57:31 132:26 189:29 254:29 461:22 488:32 514:17 656:31 686:28 747:29 761:27 770:29 801:19 822:23 874:21 
123:20 161:30 261:23 406:21 720:25 867:20 
0:24 545:26 607:33 821:25 844:28 878:26 931:18 
104:23 202:31 430:26 482:33 532:29 628:26 668:22 739:34 750:32 823:37 874:25 889:28 916:36 925:36 
110:27 113:28 121:23 170:27 621:25 710:27 917:24 
41:31 57:28 230:22 270:32 279:14 449:31 523:20 601:27 645:24 652:19 671:17 724:34 862:25 886:21 905:19 923:21 939:20 
43:18 146:23 221:25 267:22 285:25 308:23 448:33 562:25 653:21 869:19 876:28 920:28 
1:30 86:23 166:33 221:25 331:24 416:34 428:29 522:32 587:32 608:19 620:28 653:28 720:28 928:32 
129:28 205:29 221:19 459:20 515:24 882:28 978:21 
170:23 335:21 344:16 351:24 364:26 365:29 435:23 472:35 492:30 565:27 601:33 791:28 
29:23 319:25 427:20 458:20 472:30 691:33 893:34 
30:32 49:21 154:34 191:30 276:26 301:20 408:23 435:21 446:29 523:26 593:26 681:22 704:26 730:27 853:26 931:17 
4:30 14:18 19:26 143:34 186:26 218:20 279:33 338:28 395:21 396:23 443:30 491:25 593:27 802:27 891:18 928:41 
132:31 134:34 220:26 295:21 400:18 863:28 
43:27 72:20 88:22 113:23 128:25 184:26 304:32 577:23 603:15 850:19 902:27 967:30 
194:23 335:13 400:20 448:25 478:29 564:33 598:20 696:29 730:25 
102:28 272:27 614:29 711:29 741:34 910:25 
187:28 276:20 321:27 351:9 454:31 652:26 737:29 854:23 938:31 
30:38 152:37 319:17 403:20 641:17 653:25 656:32 861:22 945:28 
160:16 209:19 337:31 345:29 471:32 524:20 542:31 715:33 945:30 984:29 
118:28 162:20 244:20 318:25 742:32 
60:25 205:24 285:29 300:31 324:17 331:30 342:29 494:23 609:29 867:33 872:21 915:29 
0:19 128:26 295:29 
21:23 37:25 100:15 218:36 395:29 457:34 670:25 828:13 951:19 
129:28 271:34 406:26 419:29 521:28 668:16 828:21 880:23 889:26 891:27 934:28 963:24 
121:19 191:35 244:32 321:33 501:31 542:31 569:23 828:31 930:26 990:22 
262:24 531:28 614:34 663:39 815:24 850:25 852:31 
26:22 431:27 448:25 
117:18 318:30 416:28 544:28 690:26 751:19 850:22 893:19 979:20 
69:20 315:24 321:30 403:27 660:23 973:26 
1:38 75:26 221:29 389:25 440:34 514:36 589:27 668:25 692:27 858:30 917:30 950:32 
21:24 56:29 196:23 277:28 564:34 824:32 890:30 951:22 
37:35 90:27 191:38 273:26 413:22 593:35 599:23 704:22 805:21 874:20 891:31 978:32 
8:28 198:33 267:23 408:22 555:28 593:27 595:28 
117:36 160:34 163:18 593:15 739:19 
1:26 8:23 16:16 132:33 161:32 163:29 187:18 261:30 327:24 400:24 438:15 478:25 805:21 821:29 828:19 
38:31 81:31 310:24 331:30 424:33 587:20 709:30 740:37 919:31 920:25 921:18 946:18 
141:29 254:26 308:25 507:26 524:19 725:29 738:23 739:20 815:30 
108:21 368:19 396:31 478:18 596:23 668:26 702:28 792:27 918:30 964:27 997:31 
16:30 178:33 308:18 323:26 327:18 408:24 555:25 801:31 917:19 
358:33 455:24 636:31 717:32 963:26 
349:28 421:34 657:22 725:41 
131:26 185:19 189:30 255:30 449:20 492:14 609:24 690:32 
279:26 310:26 472:23 541:27 739:25 746:27 858:21 968:27 
34:25 141:21 185:30 324:27 549:29 618:32 852:27 909:25 942:22 
60:26 128:16 532:27 744:28 868:24 
305:31 336:32 550:27 616:27 617:30 639:16 723:24 791:23 862:30 898:18 917:25 998:28 
129:29 451:18 523:25 584:24 657:27 721:30 824:24 935:23 979:14 
116:24 185:36 384:24 495:32 524:32 593:25 657:25 748:16 751:25 
119:20 141:26 345:27 390:25 523:34 589:27 620:32 690:21 782:33 
25:29 301:25 305:32 395:37 400:29 605:22 859:24 966:27 
195:35 245:31 281:24 321:20 324:34 523:17 587:35 614:18 639:30 765:25 815:26 931:29 962:19 983:28 
200:29 271:18 275:18 404:31 663:26 672:32 741:22 774:20 794:19 853:28 889:37 
21:31 117:24 140:21 400:31 409:27 419:22 595:25 792:29 801:34 
34:35 140:24 185:29 188:25 341:26 393:15 494:30 502:27 625:25 640:28 674:39 801:21 
1:34 39:22 131:21 194:21 276:28 407:29 
23:23 34:39 199:31 221:33 320:15 425:27 457:21 518:24 609:22 615:21 682:23 719:29 898:20 944:24 951:31 966:24 
30:25 46:28 195:22 239:29 276:23 308:24 425:33 507:36 549:31 597:19 709:29 919:35 932:24 
116:25 200:19 219:34 619:28 867:26 
191:26 194:24 245:28 387:27 438:30 542:16 686:29 734:26 813:22 950:20 975:28 
30:29 88:23 230:21 474:27 533:23 680:30 686:32 733:23 764:25 837:25 967:33 
46:28 210:25 265:28 409:20 479:24 501:39 593:21 913:30 
209:24 216:23 507:23 582:37 589:24 616:34 672:21 
0:30 18:40 39:45 66:30 91:25 285:18 452:23 667:29 671:27 
60:29 132:21 205:20 240:20 271:22 318:27 395:24 578:21 596:25 599:19 619:29 644:25 691:30 833:33 867:31 919:18 951:26 
81:20 91:29 99:25 277:29 492:28 496:33 516:29 566:21 607:34 645:24 781:21 896:29 938:25 
335:31 364:20 492:20 565:21 617:26 912:26 
141:24 194:22 316:25 345:29 390:27 457:25 523:26 686:34 690:24 963:31 971:29 
10:23 178:28 239:27 308:28 746:28 932:18 
154:24 209:27 215:25 234:29 261:28 276:24 375:35 408:26 925:26 
244:39 246:30 330:29 396:31 401:28 406:24 471:29 531:24 550:21 617:22 646:26 
2:21 154:28 192:32 194:31 205:30 440:29 586:30 898:26 
43:20 44:29 132:31 221:24 267:20 668:29 849:20 863:32 869:24 889:26 891:27 917:26 920:30 934:21 
14:33 143:27 279:27 338:24 427:20 491:30 802:27 821:33 878:24 891:27 928:27 
159:21 577:28 593:23 748:24 764:33 783:27 857:26 945:32 963:30 
108:22 389:21 428:32 578:16 
103:27 245:28 308:25 349:32 406:20 451:23 468:30 524:27 709:29 733:20 905:18 
24:35 91:26 99:21 154:26 162:23 202:27 416:25 423:30 424:22 601:19 625:35 660:18 806:28 908:30 917:24 959:28 992:38 
11:27 67:26 115:32 179:23 344:31 498:32 526:34 558:22 781:23 822:25 850:29 861:21 925:23 946:33 981:24 
15:27 57:20 72:28 105:24 135:22 141:22 303:23 431:25 588:24 744:32 792:23 853:21 974:29 
230:15 376:33 408:22 585:27 829:17 846:28 914:21 925:19 
60:24 116:28 136:24 205:27 303:19 449:20 477:27 621:32 
24:24 30:27 100:25 172:23 408:17 482:24 879:27 
152:26 308:29 399:27 601:27 654:30 811:28 875:26 893:26 
111:21 190:25 210:19 318:24 419:27 679:25 685:19 805:32 868:19 900:24 
19:20 34:26 39:27 72:30 203:37 271:31 308:25 593:26 798:22 829:27 895:27 920:31 939:24 
270:25 336:28 364:19 440:24 521:33 549:28 900:27 951:27 
67:26 117:33 224:27 268:25 376:21 426:23 443:30 514:24 531:24 614:24 750:24 
103:22 117:22 124:20 143:17 215:27 236:32 315:24 596:22 692:27 831:22 886:15 
4:30 117:24 172:13 254:16 307:25 321:34 345:32 504:23 566:20 593:32 649:36 815:38 
34:34 344:28 406:25 773:20 800:26 831:30 909:26 925:32 
18:24 322:31 455:22 458:22 504:21 589:27 592:26 768:33 802:30 862:20 875:22 
26:25 97:23 168:30 227:30 321:26 351:25 387:25 417:27 441:32 467:17 659:23 686:23 720:29 764:35 766:25 768:24 893:26 
10:34 19:33 91:29 345:28 395:28 396:25 591:23 632:24 769:17 
108:26 205:34 218:33 249:19 521:26 538:28 542:33 843:28 
111:31 545:29 706:36 737:19 739:33 773:27 
72:32 76:26 141:26 159:29 334:26 348:28 599:25 654:22 703:30 803:24 879:23 917:28 
123:31 124:21 327:25 328:23 364:28 481:29 517:29 526:25 616:22 620:24 654:27 746:21 766:26 808:16 925:22 
34:20 141:19 384:26 400:31 428:34 600:28 601:22 615:27 653:24 677:23 703:31 790:33 919:21 978:23 
184:29 240:32 425:29 472:33 495:23 609:23 692:22 805:31 857:31 873:27 916:15 
239:27 366:23 400:32 419:35 512:30 618:26 
172:28 359:21 577:19 593:28 952:23 987:30 
18:19 170:23 215:31 322:26 409:22 458:22 504:32 523:20 592:25 690:26 768:21 802:22 
113:25 129:29 191:26 238:31 266:32 308:30 516:37 517:28 588:23 619:28 677:22 811:28 850:16 854:29 952:23 
90:24 161:25 219:19 416:20 533:29 577:32 593:17 601:31 613:29 674:23 676:21 
12:26 30:28 34:31 87:30 173:33 190:25 385:21 555:24 588:23 800:25 
14:24 141:27 189:30 192:24 205:19 308:34 387:16 470:36 478:17 479:28 500:24 562:28 614:18 723:26 724:26 783:34 865:27 917:31 958:26 981:22 
67:25 178:23 427:29 571:20 617:28 775:24 
12:36 141:22 204:29 269:38 318:34 336:29 345:31 558:27 624:18 670:35 
18:21 60:21 117:17 128:28 142:23 275:23 445:22 448:20 612:21 618:18 645:29 790:21 
98:25 147:32 364:23 390:23 455:21 589:29 741:32 742:25 781:20 859:34 862:27 873:29 875:26 963:27 
225:35 319:25 419:26 505:29 579:17 582:27 653:18 709:18 952:24 958:21 959:37 978:20 
131:30 255:28 474:22 609:21 902:24 966:20 
162:30 189:28 190:22 215:28 262:28 292:21 321:18 359:17 463:27 549:20 701:23 898:23 906:12 
6:26 245:34 448:23 591:18 593:31 664:29 668:21 718:33 846:30 
152:27 318:32 589:27 856:24 
177:28 191:27 305:25 774:25 
141:22 162:22 408:26 423:25 686:27 732:24 824:21 846:30 953:23 
15:19 100:23 229:21 314:24 319:27 406:28 657:23 685:25 
74:20 143:16 322:26 402:25 459:19 628:32 742:22 755:24 792:19 831:28 895:33 992:25 
42:21 195:34 283:18 395:23 523:24 700:20 831:33 844:30 846:23 
108:24 186:28 210:20 275:29 338:23 344:19 365:30 395:27 500:22 724:21 788:36 916:36 991:16 
103:29 196:35 213:24 315:31 334:21 394:18 449:20 630:27 662:20 709:37 751:21 881:34 993:19 
30:21 49:19 186:23 221:25 254:24 275:28 408:25 416:22 434:29 589:23 807:23 808:22 991:15 
3:26 16:17 34:29 90:29 158:17 300:26 321:22 408:25 492:42 544:22 595:23 609:28 615:26 625:22 732:21 737:24 741:30 747:23 784:23 946:24 970:33 
12:30 258:20 433:23 538:23 625:17 831:19 964:29 
38:26 70:23 234:35 265:16 316:26 345:28 358:33 427:32 549:24 550:31 552:28 654:34 677:23 735:26 773:36 912:21 938:30 970:31 
186:23 190:32 253:27 279:22 327:24 352:23 443:19 478:24 491:26 512:26 565:23 664:28 
221:17 310:25 322:25 473:21 587:23 878:22 
106:26 657:30 
87:28 108:30 137:27 265:19 308:26 616:24 773:30 917:24 920:24 945:32 949:33 
123:25 416:29 533:22 599:20 724:25 938:27 
14:22 141:25 319:22 321:21 458:39 478:32 485:23 582:26 599:31 615:22 858:23 917:25 
32:31 129:30 234:24 423:30 824:32 923:32 946:29 967:30 
49:19 81:25 218:27 419:18 748:23 774:31 917:22 939:27 967:31 984:22 
1:22 18:14 28:26 117:23 145:25 146:33 178:24 210:30 232:34 266:20 288:21 417:25 586:37 872:19 
214:29 337:27 396:20 407:23 411:24 567:24 588:25 663:24 724:21 826:25 833:32 923:25 970:33 977:25 
19:23 221:19 234:21 321:21 325:22 416:29 438:22 449:24 852:28 923:34 
21:25 39:26 140:17 170:21 178:41 189:27 213:26 277:30 384:20 395:27 663:31 774:25 946:28 963:25 
13:27 18:22 43:38 87:25 186:22 189:38 221:26 239:24 241:28 279:32 331:34 395:24 545:33 614:18 688:30 822:28 859:25 918:24 
170:19 244:33 457:28 744:21 776:29 805:27 974:18 
48:25 194:28 563:21 612:29 624:27 801:23 
152:26 202:32 357:19 419:30 532:28 659:20 690:21 718:30 
67:27 181:25 196:14 628:20 692:24 747:30 773:28 979:23 
34:22 315:25 445:20 527:25 685:24 780:18 
23:30 74:20 143:31 220:23 265:19 349:33 390:17 478:22 577:36 628:22 742:24 872:25 878:25 898:28 
185:25 246:27 308:38 478:28 790:28 815:26 831:27 
11:32 362:27 522:28 563:23 582:24 596:25 610:29 617:29 679:26 750:26 815:27 898:26 966:16 
396:24 490:27 704:19 799:18 889:35 932:26 958:33 
8:20 19:33 113:27 140:27 258:28 351:22 375:29 478:28 669:29 703:17 
457:34 709:24 755:28 891:16 
261:19 479:22 593:21 748:33 916:35 939:35 
6:21 78:24 131:27 152:26 184:27 254:24 452:25 492:25 504:26 599:26 644:21 717:33 718:21 780:19 822:33 857:22 
75:24 100:22 117:25 524:27 562:20 595:27 621:23 624:31 628:20 721:29 783:16 
8:25 98:29 545:19 580:19 706:34 821:29 
86:19 207:20 396:27 474:29 511:31 747:20 769:25 868:24 916:27 
136:37 258:29 302:28 322:25 344:23 399:29 552:25 828:22 881:23 932:25 
99:22 162:24 227:26 376:18 555:21 605:28 653:21 872:29 894:23 
34:32 111:31 589:21 797:35 830:28 893:36 945:29 
232:24 365:26 524:23 659:24 709:25 898:28 
18:22 322:28 457:26 563:21 593:20 641:26 693:28 925:27 934:28 984:27 
110:21 189:31 529:32 620:30 662:30 725:28 739:32 816:25 829:27 864:19 895:23 959:27 
46:17 97:29 121:38 166:22 219:27 375:16 458:22 577:26 589:20 615:30 914:33 
21:25 244:26 308:23 514:26 542:29 743:20 748:25 842:27 966:32 
47:17 313:19 542:22 600:26 692:27 747:19 755:14 822:34 928:15 
162:26 186:27 190:27 318:29 419:35 448:32 608:31 851:30 921:26 977:25 
1:33 44:23 85:19 210:25 318:28 478:35 589:26 595:29 827:17 829:27 858:26 898:31 958:26 988:31 
135:24 186:24 314:33 552:31 637:20 709:24 
140:29 194:33 254:30 396:35 408:32 461:23 719:31 882:28 891:30 
14:27 16:21 28:33 112:26 123:23 190:27 261:29 351:23 430:26 448:25 689:27 704:14 737:23 946:26 971:26 
29:23 815:22 903:33 
33:34 123:29 394:30 527:31 532:37 749:30 
324:23 396:22 416:20 427:37 431:30 821:26 878:20 
33:38 102:32 351:22 504:20 698:20 703:22 791:21 938:31 
18:30 139:27 261:33 352:29 495:21 546:27 562:26 589:27 733:31 
60:18 162:23 190:24 230:25 321:17 427:22 435:21 478:31 701:21 741:33 751:30 854:24 914:28 928:39 
178:31 241:27 343:26 599:14 754:21 898:27 953:33 
277:29 402:18 593:33 615:26 819:25 842:28 906:18 952:29 
2:22 89:22 323:27 427:23 497:22 599:14 842:32 881:24 
162:26 203:23 210:22 313:19 349:19 408:24 459:30 507:29 514:27 593:19 595:32 622:23 810:29 935:18 964:22 
161:26 315:29 349:32 611:25 623:23 738:21 831:20 886:28 
19:27 34:21 87:25 90:25 102:25 178:26 181:29 239:23 298:32 335:29 357:21 455:35 491:36 593:30 733:22 773:29 800:33 861:26 872:22 921:23 981:25 
186:35 248:25 277:16 293:28 326:32 375:25 514:23 589:25 619:22 703:28 816:21 833:31 
48:32 102:35 321:18 523:33 610:13 619:27 641:22 737:32 755:30 797:26 805:31 932:20 965:30 
0:28 596:19 829:30 863:32 
56:22 101:26 202:22 428:25 653:24 755:31 831:32 893:20 898:21 992:17 
128:24 329:23 545:35 872:27 981:30 
111:30 190:32 213:24 310:28 605:20 805:33 896:28 946:30 
19:23 301:31 316:18 364:26 375:28 426:33 427:25 495:20 742:29 749:28 828:27 932:27 
32:26 143:25 265:25 270:23 284:31 315:27 609:25 623:24 717:20 831:26 992:22 
22:25 215:26 219:25 241:20 308:24 367:27 388:24 423:33 497:27 589:17 618:22 621:30 741:21 944:20 
4:25 42:20 162:27 222:26 270:28 308:21 318:26 322:26 457:16 502:27 523:25 638:26 846:29 881:21 889:31 925:34 935:25 
28:31 210:20 238:25 239:25 308:32 406:23 764:18 
67:28 307:22 542:19 567:28 741:33 852:25 915:22 
24:30 56:24 113:29 155:36 244:35 358:20 427:27 542:23 577:26 580:22 601:33 718:21 833:17 868:20 
81:22 190:28 261:22 277:32 350:26 596:36 617:23 663:25 680:22 692:21 723:27 791:36 819:26 898:31 959:23 
63:25 263:26 664:29 680:18 733:26 739:21 768:24 846:27 967:27 
32:28 56:31 175:36 245:23 292:29 362:26 366:22 409:32 544:17 563:27 582:28 589:20 613:22 721:16 794:26 847:30 935:17 939:28 966:19 977:23 981:23 
215:34 293:18 390:32 550:26 585:20 606:17 653:22 656:23 663:29 847:21 912:33 919:31 970:14 
2:24 14:19 134:31 190:34 244:26 401:20 558:22 583:30 830:27 861:27 912:24 974:23 984:25 
129:22 266:25 406:25 424:23 521:26 593:16 659:29 866:31 880:23 963:26 
26:26 366:22 798:33 828:26 857:31 867:21 
67:21 87:33 113:24 123:22 238:23 276:22 328:22 352:36 429:26 524:24 680:20 748:21 797:25 867:34 891:25 917:28 
184:25 244:25 524:24 596:28 697:28 756:23 853:27 917:26 959:26 977:35 
69:28 170:32 577:22 646:17 
75:21 101:19 117:23 200:26 221:28 244:23 267:17 355:25 458:30 601:26 746:24 822:24 843:25 912:27 920:20 
75:22 310:36 390:41 577:22 599:25 617:30 629:36 630:19 916:28 
132:25 155:22 421:23 427:22 507:39 558:19 749:22 
199:32 215:24 221:30 388:25 423:16 497:23 589:35 609:29 615:24 621:32 718:23 898:27 944:24 
60:27 586:26 595:25 792:28 
194:31 213:26 229:24 261:23 318:29 437:25 455:20 965:32 
91:20 514:37 635:24 846:31 850:31 984:30 
30:22 159:31 358:28 400:25 445:34 531:23 612:22 691:31 720:21 
6:28 110:24 162:26 191:23 194:29 196:29 384:19 425:23 444:17 544:20 600:30 676:25 788:22 805:24 878:18 
186:25 194:27 221:20 250:28 319:19 408:27 474:32 507:23 601:21 735:27 810:34 
6:30 42:24 123:25 187:23 207:16 242:18 412:27 455:24 577:26 587:13 602:35 680:20 737:27 839:36 992:37 997:27 
14:25 50:23 56:29 67:25 290:22 444:27 448:23 549:29 656:30 663:22 744:17 801:20 856:28 925:20 
22:26 124:24 135:22 189:30 293:30 417:21 455:31 474:24 477:18 478:29 559:29 582:20 689:26 699:34 717:33 829:29 939:25 946:26 
190:30 321:21 368:29 431:29 505:26 618:26 672:27 691:39 704:24 734:33 
48:20 98:30 261:31 271:20 345:18 431:22 489:24 748:23 751:26 
1:21 12:32 194:23 272:21 304:21 335:23 529:27 582:24 766:26 871:21 
32:29 60:27 98:25 240:24 319:26 335:39 344:32 366:29 435:29 474:28 531:27 544:31 632:34 829:26 946:28 
28:30 117:21 280:22 335:33 349:23 409:19 420:28 444:19 457:40 470:27 567:26 599:30 617:18 
21:28 90:26 304:28 455:17 495:23 707:21 887:27 970:25 
63:20 72:31 111:22 115:22 147:27 161:17 210:23 328:29 589:22 725:25 739:27 797:27 878:28 889:27 945:25 
1:37 33:22 141:26 215:23 351:33 431:27 433:21 513:23 664:33 827:22 908:20 915:26 951:24 979:22 995:29 
93:17 186:25 202:21 210:19 593:32 724:25 875:28 939:22 
24:13 29:31 30:28 86:27 215:22 365:24 495:28 496:30 738:30 770:19 
67:23 108:23 185:19 327:31 339:32 393:31 408:29 544:30 568:30 617:22 704:17 706:29 718:28 778:22 934:27 
14:32 100:26 227:20 347:27 406:34 589:25 820:26 846:23 868:27 
186:42 408:22 428:19 543:20 595:19 616:24 859:30 959:28 965:28 
190:24 321:21 478:27 751:25 791:19 881:23 898:24 
42:31 195:24 324:28 331:29 448:29 470:17 479:27 481:20 741:32 946:26 959:22 
8:21 116:24 123:29 262:24 382:28 478:24 545:21 706:38 828:29 833:23 853:33 873:22 905:25 987:25 990:24 
119:27 189:24 190:23 301:31 346:26 428:26 435:32 588:23 748:24 851:17 995:38 
16:21 49:24 67:22 160:22 262:25 273:26 455:36 850:22 931:28 
135:25 186:28 314:26 552:31 563:24 637:26 709:33 889:20 
21:38 113:22 144:30 387:22 390:36 416:30 457:25 472:27 567:26 588:30 632:24 732:25 766:26 886:32 
18:27 54:26 218:23 339:27 406:24 425:14 964:31 
0:20 218:24 319:25 401:22 451:27 495:28 545:37 607:20 821:29 844:32 878:25 931:41 
51:27 152:31 170:32 277:26 324:17 378:34 452:13 507:29 543:30 614:25 802:27 812:27 914:37 917:23 932:25 959:29 
93:32 202:24 490:37 612:21 635:20 724:27 826:19 889:25 
56:28 60:28 207:23 221:28 290:24 293:27 337:30 366:27 378:28 419:26 542:23 589:14 635:21 664:38 672:27 
86:29 111:28 253:16 315:28 321:26 347:24 470:31 492:18 514:32 653:31 668:33 694:26 741:42 747:24 748:20 820:30 827:22 
141:27 186:19 244:22 319:23 388:27 595:29 635:28 702:36 751:25 
12:23 72:15 161:22 186:21 271:20 489:20 549:27 557:37 603:25 639:31 651:33 689:31 700:34 
66:31 99:18 141:30 308:30 408:30 575:25 636:21 653:29 659:32 664:39 771:29 886:30 959:30 
8:25 271:37 275:29 303:25 408:20 431:21 593:24 741:36 774:25 919:24 946:25 
117:28 427:28 640:23 861:33 877:19 
138:17 192:22 215:30 220:25 318:17 388:20 408:29 423:31 443:19 497:32 589:26 621:24 742:23 801:29 857:28 944:23 972:33 
141:34 167:22 194:28 389:28 426:38 431:32 478:27 482:26 562:22 601:21 619:23 667:16 876:30 981:23 
189:25 265:23 339:25 342:25 408:21 443:29 578:31 738:36 764:31 784:33 828:21 878:24 919:27 
32:21 242:26 267:30 
56:29 167:25 179:32 189:32 298:19 357:28 431:30 871:27 979:21 
29:26 132:22 162:30 186:33 196:27 345:27 448:27 608:23 660:27 921:21 
86:24 445:33 577:23 656:18 739:31 922:24 931:29 
154:23 230:30 507:24 539:27 544:21 557:26 614:25 621:23 635:23 815:24 879:26 984:26 
117:26 125:26 151:21 161:28 250:19 273:30 304:26 394:29 401:27 419:33 426:21 524:32 618:24 682:28 703:24 805:16 922:32 993:37 
103:25 300:22 321:25 449:28 764:35 766:22 773:27 992:16 
2:25 151:28 154:34 401:34 440:24 703:25 898:25 
20:23 431:24 478:24 485:21 649:24 749:19 805:26 958:20 
32:26 57:23 60:27 72:29 172:29 184:22 356:18 656:22 669:23 740:37 741:15 776:25 861:24 867:29 959:25 
19:30 62:22 158:31 210:25 230:31 248:25 308:27 310:32 612:33 619:23 740:27 774:28 799:23 846:29 921:27 963:22 
143:27 308:25 364:20 366:28 478:24 
48:28 138:19 185:35 189:23 344:25 441:24 459:25 567:24 593:26 595:29 628:27 691:32 701:28 850:31 860:24 
44:29 60:29 91:23 128:25 140:22 159:22 239:23 270:25 336:26 440:21 521:30 619:24 900:27 977:28 
99:22 104:27 186:33 514:19 592:20 593:28 861:17 875:29 886:29 922:20 959:26 
44:18 215:28 335:27 345:21 408:29 653:23 668:20 724:27 
128:21 134:33 241:35 252:31 593:20 621:31 746:32 805:26 
166:20 375:18 390:29 424:19 458:30 500:24 523:18 638:28 677:30 770:25 819:27 873:19 
32:31 67:26 250:30 308:19 331:26 443:23 562:23 633:26 821:23 903:24 
34:21 132:30 195:26 307:21 390:28 512:30 552:22 733:28 
18:18 28:28 56:25 141:31 143:30 166:29 187:20 270:17 344:23 478:20 544:28 567:23 614:24 622:25 692:22 
5:28 42:30 110:26 121:23 367:27 395:16 470:17 521:25 555:29 620:20 662:29 831:29 959:20 
393:34 431:22 433:24 709:34 724:26 
141:24 279:21 459:25 526:24 533:32 635:20 667:29 861:21 876:32 888:29 891:34 921:15 946:21 981:23 
0:27 19:22 62:23 162:27 181:28 293:25 459:28 552:24 599:28 750:20 790:31 822:26 829:23 923:12 995:26 
274:26 310:21 550:29 668:24 711:22 855:28 944:24 
154:23 185:23 701:24 886:24 995:26 
34:30 111:22 445:24 489:29 492:24 524:28 562:38 613:18 721:26 751:28 810:20 828:26 
4:33 21:25 110:36 194:27 331:31 455:24 497:16 507:24 672:38 937:27 
46:22 78:24 112:28 141:29 191:20 250:25 553:26 668:29 889:29 891:33 934:30 952:20 
313:20 315:32 558:27 667:37 679:26 720:19 737:31 831:20 842:26 900:22 944:30 
158:24 319:28 328:20 421:27 558:29 586:25 596:35 671:31 815:39 917:22 
12:20 170:35 524:19 557:25 578:22 632:30 681:25 700:32 785:26 867:16 
102:30 191:17 277:24 315:21 478:21 608:22 830:27 856:17 893:17 928:27 970:25 
42:27 67:26 191:22 398:25 400:28 427:33 542:25 709:21 853:28 
24:33 186:25 425:26 600:26 805:26 
113:30 209:23 245:22 262:18 301:21 348:27 427:22 473:25 524:34 542:32 603:26 801:27 881:27 
38:28 83:27 117:18 375:26 478:28 830:26 880:38 898:28 910:29 937:25 959:22 
15:31 42:33 56:22 57:30 72:24 110:23 178:31 194:24 558:25 596:23 668:33 793:26 862:31 870:30 922:34 
186:20 304:27 308:31 328:24 720:31 765:24 797:25 798:24 912:19 
30:29 98:26 244:33 261:27 318:24 330:23 396:18 401:34 531:24 617:29 646:31 653:26 751:23 934:21 
18:22 116:24 141:22 187:20 195:26 239:28 285:26 300:26 645:22 704:33 731:27 751:30 778:26 852:25 
28:20 81:22 98:25 100:29 136:34 230:33 262:30 286:26 389:26 593:31 859:25 886:27 
34:24 232:32 384:19 406:24 481:23 491:26 900:25 949:32 
86:25 117:21 187:35 478:19 749:28 774:27 917:26 
250:24 517:24 621:17 718:15 861:27 
356:30 406:23 428:30 589:27 649:19 711:29 749:24 814:19 916:31 
57:24 166:22 285:25 345:21 413:23 427:25 601:32 645:28 905:34 939:24 
186:35 459:19 595:23 610:19 704:24 779:29 
5:33 163:14 218:20 230:22 449:22 458:30 587:28 589:32 704:26 720:22 740:19 857:27 901:30 
160:22 186:24 234:33 235:33 348:18 445:19 489:20 584:21 605:26 614:25 622:24 886:20 961:25 967:28 
149:32 262:27 307:37 620:23 645:16 859:23 
140:30 596:28 644:32 867:28 
152:20 202:23 357:25 419:26 532:32 652:24 668:30 690:27 756:26 949:24 
54:20 170:27 279:22 356:31 427:23 599:27 649:25 773:25 774:18 815:20 973:22 
39:26 310:22 315:31 384:24 444:28 492:24 641:19 776:28 
365:29 366:21 384:23 406:28 707:22 709:28 854:36 
26:38 147:25 478:30 490:22 578:28 805:19 858:23 
32:21 396:25 667:28 680:23 741:25 743:16 861:25 
178:21 229:34 295:28 438:27 542:32 596:31 668:22 917:35 
84:29 132:23 163:21 234:26 376:29 391:24 588:34 623:23 689:28 730:22 768:13 776:33 809:25 952:25 
44:32 62:18 158:28 159:25 210:28 421:33 586:23 671:24 740:22 815:21 917:37 977:35 
26:25 111:21 221:23 253:21 315:26 340:27 347:35 365:29 375:26 443:26 589:29 662:26 733:22 806:25 
190:24 292:18 313:25 536:24 744:26 781:30 
146:24 413:20 478:27 584:27 600:30 749:18 879:24 
132:27 315:28 330:27 391:28 500:20 600:21 708:29 850:29 879:18 
6:26 19:23 51:19 195:27 290:23 301:18 321:29 448:22 538:30 557:26 646:26 761:29 864:35 898:27 922:22 
15:27 31:24 48:25 49:20 191:28 195:32 352:27 388:34 408:23 523:24 721:27 781:28 977:33 
105:23 117:30 318:21 521:31 623:25 751:25 831:28 878:21 992:29 
56:32 141:28 143:27 219:26 334:23 595:31 652:26 
100:24 222:26 425:20 426:26 516:33 657:28 671:23 690:26 
18:20 194:25 270:33 414:26 461:33 866:16 959:22 
1:19 26:25 170:26 186:31 194:22 272:23 305:25 335:27 365:37 389:21 449:24 640:29 657:29 675:24 766:20 871:29 
5:32 141:25 232:33 239:31 365:30 524:27 659:26 699:21 702:20 709:29 741:26 750:22 773:26 898:32 
56:24 60:23 120:37 179:22 188:39 196:29 203:22 244:29 405:26 408:29 720:29 755:30 792:12 878:29 
5:24 14:26 42:28 190:21 209:28 287:21 500:20 577:28 762:26 816:23 925:23 959:27 
26:28 113:27 161:23 221:29 224:19 253:22 347:22 662:25 735:32 751:36 920:24 
18:27 26:30 30:25 124:31 152:23 154:22 261:21 617:27 680:19 733:23 739:25 770:25 827:24 864:18 878:25 984:29 
34:29 132:25 187:30 230:26 365:28 375:26 449:22 478:18 730:24 850:36 914:19 920:37 
48:29 188:32 324:29 407:27 416:35 455:27 522:14 709:31 849:20 891:29 
22:40 41:22 144:17 219:20 271:24 283:25 345:27 367:29 721:26 741:20 797:33 973:24 
131:20 186:19 218:22 395:28 443:20 446:18 593:37 644:24 717:21 718:25 724:26 
46:27 445:33 678:22 781:27 845:30 895:23 912:24 
24:26 30:25 100:18 172:27 408:20 482:25 879:19 
124:24 172:25 422:29 577:18 593:29 683:31 756:30 
19:21 168:33 352:27 355:24 567:27 603:17 616:28 665:24 697:30 731:32 826:18 902:26 
12:26 321:28 323:18 545:26 593:26 599:22 656:31 
116:22 117:21 197:10 357:32 457:37 615:34 653:22 697:25 709:17 959:28 
37:31 134:20 406:32 420:20 522:32 593:28 596:14 
11:39 30:16 319:34 344:19 569:26 656:27 945:34 
34:24 135:25 138:33 218:27 270:20 477:21 657:25 686:17 826:25 883:33 
232:30 384:28 900:21 949:28 
32:26 111:27 141:29 154:31 161:25 336:31 470:24 474:23 601:22 742:22 914:24 919:24 
190:25 310:18 315:29 706:19 739:13 968:19 
48:35 239:21 315:20 351:23 408:42 544:27 567:30 641:30 799:29 931:18 
41:31 72:34 94:19 184:26 296:20 513:25 549:23 699:23 706:27 743:23 876:15 880:33 
262:26 331:22 435:28 550:23 563:19 
34:23 101:33 110:24 129:36 152:29 186:33 388:25 481:24 489:26 648:29 657:26 664:30 889:22 909:33 920:26 988:30 
262:29 267:21 308:20 431:31 449:20 718:23 723:24 791:30 
34:18 91:21 162:30 709:26 798:34 801:27 
132:28 177:21 181:27 195:27 205:29 318:26 417:29 523:20 542:27 544:28 728:23 778:38 891:21 901:30 
23:32 227:20 308:29 406:29 452:22 587:33 597:22 614:24 686:23 837:36 900:30 967:28 
87:21 524:28 733:24 790:24 
194:29 279:20 337:24 376:26 425:20 448:28 470:29 567:22 588:23 663:30 977:31 
86:27 181:26 308:23 458:36 690:22 739:31 
16:28 331:32 407:23 481:29 599:18 633:23 709:26 815:21 886:27 896:29 
186:19 199:27 323:33 521:33 562:24 726:26 775:22 805:26 893:17 925:28 
19:23 113:29 154:29 345:31 375:28 478:30 659:25 669:29 680:25 703:25 807:25 850:20 
56:24 387:26 394:24 431:17 452:27 550:25 694:24 720:21 739:26 931:32 
42:19 56:21 180:22 236:21 242:23 258:17 273:30 286:26 319:29 351:28 475:25 523:22 562:30 587:31 598:25 917:25 
60:26 143:35 170:31 260:25 276:24 386:23 587:40 593:28 677:33 846:26 951:29 978:29 
12:28 81:27 87:34 144:19 293:28 336:23 577:25 588:34 725:29 915:33 
152:16 452:30 492:24 504:20 514:23 569:32 738:32 833:25 
56:26 72:21 86:32 186:29 292:27 328:23 423:28 478:25 544:20 623:36 709:25 822:21 
29:22 60:27 162:24 227:26 521:27 593:18 755:22 807:27 
30:29 145:23 177:22 303:27 308:23 324:25 384:20 526:33 625:23 656:25 670:38 755:31 
19:30 46:20 336:32 408:27 427:30 675:32 875:24 
3:24 37:36 78:38 445:33 513:23 566:28 679:25 889:34 981:21 
15:36 190:23 267:29 310:32 315:31 555:29 739:28 968:26 
91:24 152:25 308:29 502:23 654:24 811:23 928:30 
81:25 112:17 191:15 319:26 552:28 616:25 632:33 857:14 882:33 
48:32 177:35 318:32 417:31 523:32 542:26 574:20 891:21 
6:26 102:23 185:30 349:25 403:22 427:29 444:20 520:31 721:28 852:30 880:28 931:42 973:20 
18:27 128:29 241:27 252:23 275:27 318:28 345:25 445:26 448:29 589:33 593:28 618:28 621:29 746:32 769:29 776:21 798:28 846:28 866:25 
170:20 184:22 321:22 341:29 421:31 439:25 542:32 653:41 737:19 750:23 778:32 799:32 
189:32 261:31 472:31 526:21 582:25 596:23 606:28 697:21 750:33 842:22 853:21 858:30 
136:25 234:31 308:22 406:28 680:23 881:17 
170:31 245:21 315:22 387:25 540:26 555:29 614:33 778:29 794:27 833:38 867:28 
18:30 28:20 32:28 194:22 279:17 324:21 356:33 523:24 596:34 709:22 905:31 
42:22 78:27 189:31 319:24 351:26 523:19 553:28 657:36 773:26 905:23 919:25 
12:34 288:27 348:27 386:23 558:23 567:19 656:28 852:31 892:25 
44:37 74:20 159:25 177:18 321:23 337:32 416:25 427:29 567:31 588:15 663:23 916:23 977:21 
81:24 230:32 408:25 492:31 539:18 596:30 645:30 651:31 917:24 941:32 
118:21 136:35 162:30 244:36 258:20 318:28 399:27 552:31 742:23 932:21 
134:25 348:23 427:19 461:23 
14:28 30:28 54:23 69:25 222:33 267:29 283:27 351:31 352:25 388:32 396:20 441:25 474:22 589:21 739:28 746:27 944:29 
59:30 90:37 318:21 331:21 455:26 653:28 981:24 
29:24 78:25 85:24 108:34 154:29 265:30 304:27 310:19 492:27 550:22 635:28 855:30 878:28 920:27 945:26 
227:28 690:25 724:36 764:23 
523:16 623:30 723:20 809:34 848:18 861:31 967:26 
122:17 146:23 187:27 221:22 236:23 328:19 492:19 577:24 596:29 601:22 653:26 741:17 824:17 831:19 860:26 889:24 997:32 
19:29 29:29 170:23 406:29 582:24 680:27 711:26 797:27 861:23 946:28 
15:30 131:38 307:29 311:31 336:23 449:33 466:30 612:26 619:24 663:16 744:35 831:24 
21:29 366:29 423:24 437:20 659:27 794:28 827:24 862:28 867:25 914:28 973:24 
526:15 688:23 889:28 
110:34 116:38 318:28 507:21 605:31 690:25 846:14 894:23 952:27 
12:25 14:32 34:23 85:26 191:27 748:29 
304:34 419:31 426:33 618:29 993:26 
11:26 57:30 351:22 448:30 620:23 720:26 749:20 916:28 946:31 966:25 967:28 
13:37 30:24 72:29 242:33 276:34 349:16 406:32 446:30 452:29 668:25 733:21 959:31 984:19 
16:25 86:26 110:35 313:26 425:30 428:25 635:29 748:14 826:22 
276:21 285:35 438:23 670:34 778:27 909:42 
31:27 77:27 141:24 194:29 305:20 366:24 852:23 
19:28 20:36 431:25 455:34 479:20 589:27 601:31 635:10 649:25 801:32 932:28 
258:27 267:22 433:27 538:18 625:24 741:24 805:28 858:26 861:26 964:23 
68:24 91:21 108:28 136:23 195:22 234:27 376:26 492:29 539:24 609:17 662:34 741:23 831:21 
110:20 215:38 315:27 323:23 410:22 623:29 704:19 709:30 788:20 958:31 
18:21 177:20 191:34 210:24 305:20 552:20 585:29 610:19 615:30 720:30 743:28 774:27 842:21 972:28 984:26 
28:21 86:21 140:28 207:27 308:20 401:34 552:16 659:28 778:28 908:30 
38:25 143:42 194:23 301:20 533:22 564:22 599:38 723:22 816:30 898:25 
44:30 85:22 152:23 183:17 186:22 215:34 270:20 437:27 527:28 589:26 776:18 798:20 866:24 874:29 
241:25 261:26 579:34 831:21 932:18 981:29 
146:32 413:28 478:27 584:23 600:25 749:27 879:24 
60:23 142:25 175:17 225:16 331:28 550:24 690:23 709:27 959:20 
67:16 183:17 184:23 189:30 194:29 238:22 310:24 495:31 550:29 855:23 873:29 912:22 993:22 
321:24 602:31 636:40 859:29 992:17 
123:30 187:25 190:34 194:29 227:24 234:22 265:23 477:20 526:22 529:28 574:22 680:31 914:27 967:19 
6:16 12:23 207:24 250:24 310:29 408:23 531:25 556:39 706:16 877:27 917:25 920:22 986:28 
6:30 46:21 117:34 159:21 161:27 177:25 419:25 470:27 792:19 909:23 
139:31 308:20 396:30 452:23 946:30 978:23 999:30 
117:26 328:25 390:26 459:37 851:28 
111:20 407:28 659:26 668:25 815:30 978:26 
56:22 117:20 162:24 221:34 232:27 290:24 293:22 331:26 508:34 664:25 672:34 
68:26 139:22 262:35 273:22 314:25 433:28 717:25 793:28 928:28 981:34 
18:29 313:26 482:24 570:24 987:35 
14:27 20:28 30:20 207:25 220:30 496:23 523:20 532:31 587:20 659:29 740:21 742:35 769:22 803:26 831:23 852:17 918:30 967:24 
16:30 18:21 47:33 187:20 239:27 285:21 300:20 414:25 430:24 478:26 704:24 731:18 852:25 
123:23 137:24 214:22 308:41 318:20 419:29 429:31 584:19 595:24 607:26 749:25 829:30 850:29 899:26 963:23 
30:29 56:33 102:16 147:28 152:31 178:22 185:20 190:32 318:33 376:23 419:30 653:32 657:21 792:21 977:21 
32:21 57:30 74:26 108:35 187:30 194:33 199:16 244:22 290:29 318:26 521:20 725:13 925:23 959:27 977:30 985:25 
14:18 39:25 191:27 351:28 370:27 737:30 813:27 829:27 850:27 861:20 875:33 984:26 
108:22 389:26 428:19 578:30 
136:28 146:24 269:25 413:24 414:29 478:20 584:34 600:22 749:21 879:30 
14:26 18:28 138:28 288:26 342:29 538:29 542:27 605:26 697:24 800:22 850:31 854:26 989:35 
137:18 218:25 239:19 322:28 396:23 523:30 657:35 764:25 
136:38 219:32 263:32 327:23 421:33 449:22 474:17 492:21 621:24 630:32 792:23 854:20 
21:29 246:18 406:30 471:31 514:25 542:22 550:29 563:32 743:17 
153:35 154:21 187:25 202:27 210:23 233:27 293:17 395:22 408:24 438:27 443:19 478:19 492:25 504:26 616:19 720:25 749:29 
266:26 285:32 310:26 345:38 426:20 457:23 632:25 711:26 751:24 831:25 854:28 920:16 
26:36 96:30 187:23 408:29 443:23 478:31 523:30 749:24 893:20 898:26 931:23 
136:21 239:23 303:23 449:29 561:27 621:23 640:26 781:43 908:26 932:36 
21:28 86:35 94:31 141:33 387:24 472:28 516:22 595:22 596:24 607:22 680:20 733:19 889:28 938:30 
39:31 60:23 203:29 229:25 241:27 245:26 310:20 331:24 349:25 438:22 615:23 635:21 663:32 778:25 828:38 898:31 925:25 946:39 
115:25 415:26 440:19 507:17 544:22 617:26 633:26 709:31 861:23 867:24 895:26 925:21 
34:19 395:26 523:33 532:20 658:20 879:20 
26:26 87:28 123:20 194:25 219:30 569:26 626:27 872:29 
99:29 141:27 190:18 427:21 788:22 852:21 878:24 
0:33 113:34 187:29 245:22 455:27 633:32 659:23 735:26 
117:14 277:35 278:34 318:23 402:18 408:27 514:23 545:30 653:28 668:31 802:24 
67:15 161:29 296:32 345:23 474:19 562:20 741:29 873:21 
93:30 448:26 465:24 690:19 944:26 
14:26 274:19 427:31 429:24 576:32 624:25 704:21 879:25 
14:26 56:18 117:24 141:29 146:22 221:22 290:31 293:31 327:33 664:21 672:28 865:32 878:38 899:26 932:15 
39:28 400:27 461:27 593:24 704:30 844:38 869:22 
135:28 293:18 351:23 563:21 733:28 916:27 
44:26 67:26 93:34 113:24 141:31 205:29 288:26 398:21 400:25 550:23 585:16 659:22 810:17 822:19 906:24 
75:29 101:30 313:32 428:29 595:29 646:18 710:22 882:17 898:14 912:39 
350:27 499:32 600:26 829:35 976:20 
10:31 36:27 110:20 478:28 489:31 514:24 664:27 676:17 814:31 865:25 886:28 893:26 916:30 
160:30 163:27 175:23 262:25 331:26 350:36 389:23 435:20 550:31 563:23 593:33 699:34 802:24 863:16 912:28 
61:22 185:27 234:27 285:27 345:15 376:24 563:25 645:27 978:25 992:23 
56:28 286:30 338:24 408:25 532:22 626:36 668:30 
60:28 404:20 492:20 742:25 752:28 
14:22 46:25 213:22 222:22 411:29 441:31 492:24 589:34 645:21 738:27 931:37 
16:26 152:21 241:24 318:19 324:26 396:29 494:31 653:30 774:23 805:19 947:34 
21:26 32:25 128:25 326:30 478:27 635:27 685:22 709:23 739:20 830:33 912:29 946:34 952:30 
141:17 185:25 224:22 328:32 564:23 
179:16 199:14 244:27 563:32 909:25 
315:22 408:23 478:31 587:16 614:17 615:19 
136:25 230:29 421:18 523:15 634:22 680:31 
56:26 91:14 162:26 326:24 427:30 428:28 448:24 653:28 769:25 898:33 923:25 946:30 
141:29 185:24 240:33 328:32 442:28 628:18 693:20 747:24 776:22 
69:20 195:27 559:22 827:23 891:32 
0:29 26:34 519:30 690:33 761:20 
16:20 185:23 186:35 219:28 305:21 448:24 479:27 589:25 599:17 615:31 733:26 783:23 
43:26 79:26 110:20 315:20 614:22 680:32 
117:30 135:34 250:24 387:19 394:32 408:27 468:28 552:29 709:22 922:22 
14:29 186:37 220:20 250:27 267:14 585:36 926:22 
24:19 90:23 202:29 239:25 281:29 408:30 601:27 
119:26 221:36 309:31 489:21 653:29 
10:21 18:22 216:25 227:28 349:25 472:19 585:26 693:34 721:21 739:29 764:28 
81:28 218:22 235:30 433:29 500:32 598:31 624:33 653:27 657:27 668:25 
19:32 34:23 39:24 72:27 203:25 308:21 409:36 451:21 621:26 720:32 853:26 898:24 
18:29 509:26 539:26 548:33 608:24 662:22 672:33 764:29 950:31 992:22 
105:30 158:20 178:23 308:31 396:33 449:28 538:17 599:19 636:28 
0:24 49:35 230:26 336:17 376:21 587:32 847:29 852:28 
116:25 117:33 121:22 253:28 271:33 330:26 408:23 509:23 783:25 959:23 
128:22 134:27 241:23 252:32 593:25 746:25 789:26 805:21 
138:26 189:23 331:31 344:26 458:22 567:31 595:17 628:26 691:27 701:20 778:26 783:24 850:25 886:31 895:27 
46:27 108:30 275:29 441:25 502:27 544:21 737:22 819:20 821:35 833:32 
14:20 48:24 161:24 163:19 187:21 190:33 207:33 222:22 244:20 396:25 452:21 474:31 511:20 769:28 778:22 
1:27 87:25 163:23 194:27 210:24 221:18 272:25 317:29 335:23 639:28 766:25 871:34 893:20 992:29 
184:26 190:31 194:29 202:34 293:40 308:25 315:24 690:29 906:25 923:32 
14:39 46:34 131:25 245:15 317:23 351:25 397:28 512:20 542:25 580:30 809:25 858:30 912:24 952:27 979:31 994:17 
21:32 88:14 202:36 366:24 376:40 408:28 577:18 783:32 828:22 857:24 902:25 959:29 
3:25 108:18 152:24 188:28 269:29 308:30 313:35 384:28 410:20 482:29 523:28 538:31 595:27 681:17 712:22 718:30 
277:23 523:33 626:23 638:33 677:26 852:31 
60:39 86:27 191:29 308:20 318:35 433:29 619:31 691:29 
78:23 108:25 186:22 215:23 376:23 425:22 452:31 621:22 720:18 
69:24 170:17 425:24 478:25 577:31 619:31 630:20 646:22 663:22 
43:33 110:24 162:31 197:34 279:22 308:35 408:25 676:38 909:21 923:31 959:24 
43:37 162:28 186:28 187:32 235:22 338:28 456:20 614:28 653:22 718:24 824:33 833:25 905:26 987:19 
132:32 335:30 364:38 390:34 492:27 524:25 565:24 617:20 768:18 912:25 963:24 
116:25 132:24 181:41 205:32 594:25 778:28 792:29 901:22 
26:28 110:36 111:19 115:25 187:36 268:28 329:19 390:22 426:31 514:17 565:20 593:27 847:21 878:27 935:25 
49:24 115:25 121:25 141:23 175:31 364:24 396:25 436:30 482:34 577:16 616:23 637:27 731:27 778:27 846:27 872:20 
43:27 139:29 449:36 604:28 640:26 675:28 776:31 886:19 
5:21 110:18 266:24 344:22 593:20 735:29 893:28 978:28 
250:25 308:24 390:31 518:19 555:31 779:28 792:26 964:25 970:24 
113:24 315:31 558:33 567:29 892:25 967:25 
1:26 35:23 48:31 161:16 190:23 210:30 327:29 704:20 755:29 778:19 851:26 
5:24 178:22 210:18 323:28 593:15 636:33 680:20 691:32 751:27 774:22 793:23 967:23 
162:27 172:27 194:22 318:22 348:27 364:23 428:24 485:26 578:28 653:26 704:32 742:23 749:28 752:29 825:26 887:27 936:23 
20:23 30:23 91:25 128:28 152:27 400:20 686:26 726:16 776:27 844:29 
18:25 37:24 670:28 828:26 951:27 
132:24 277:29 413:19 589:41 847:16 
132:25 402:32 589:26 733:22 816:32 
57:35 136:24 258:22 399:30 552:18 932:33 946:26 
44:38 139:23 247:30 318:25 335:20 422:31 437:18 448:34 489:15 549:25 654:26 725:27 977:26 985:24 
43:28 111:22 326:28 478:34 595:30 749:22 830:23 868:32 912:32 946:20 
96:20 121:21 195:21 245:28 321:36 443:20 472:26 584:34 
38:23 248:30 275:14 416:27 473:21 490:25 497:30 531:22 587:25 619:28 756:36 898:24 
18:23 56:30 215:35 409:26 544:33 589:29 733:20 
0:33 230:22 331:23 376:27 482:34 523:22 587:23 601:30 744:29 852:27 
194:19 319:17 376:35 408:23 563:35 653:23 829:32 846:28 925:36 
178:18 210:20 238:15 239:19 334:30 449:27 709:32 751:30 764:29 822:26 895:19 
152:25 172:26 394:33 478:34 587:28 657:20 733:26 772:31 805:37 829:29 867:21 886:25 909:21 959:26 
63:24 108:24 132:31 163:33 261:22 378:29 403:24 420:23 739:31 932:30 946:25 
1:32 20:25 48:26 161:25 196:29 218:24 230:28 322:32 351:31 443:24 478:25 526:20 659:14 764:16 821:29 883:17 
178:23 376:24 442:30 542:25 577:20 601:25 789:40 833:22 
115:18 194:23 279:19 376:27 425:22 470:25 593:24 747:23 
11:28 21:23 101:34 186:21 187:23 215:21 234:24 235:26 396:24 443:29 478:26 523:20 603:23 656:24 743:17 786:28 831:25 
16:21 86:22 98:30 313:26 331:20 422:21 425:26 610:25 615:26 635:23 743:23 972:30 984:26 
6:27 90:37 187:24 246:23 406:30 423:29 471:24 550:29 563:31 601:29 783:24 807:29 833:22 916:25 931:24 937:29 
24:26 30:27 100:25 136:19 172:27 294:30 303:21 403:31 408:25 449:22 615:33 621:22 693:28 879:25 898:21 
7:29 78:27 154:21 386:27 431:19 474:28 492:26 635:25 875:21 
78:30 430:31 500:34 615:29 766:29 
86:37 401:17 422:21 426:24 452:25 498:24 552:26 615:27 822:29 
44:33 84:24 187:31 192:23 194:25 277:20 308:39 395:27 545:28 589:28 741:30 802:21 816:26 859:29 
103:34 118:18 160:19 162:29 244:24 318:23 321:22 452:17 460:20 662:20 742:31 842:15 912:28 
49:25 74:24 136:22 234:23 258:31 261:33 349:30 389:29 425:31 626:21 676:29 709:18 725:36 756:26 971:24 
210:26 389:37 809:24 
189:29 239:33 261:21 375:32 430:25 544:24 617:16 618:24 881:31 909:24 
116:28 185:30 236:33 419:34 521:27 524:25 577:26 591:33 593:28 619:31 645:33 722:36 751:22 756:35 768:24 850:26 879:20 985:23 
48:24 141:29 190:22 203:21 281:19 308:26 327:31 387:30 433:23 512:26 664:33 672:23 720:22 776:36 797:23 877:32 
83:26 85:20 185:26 219:21 349:36 737:24 852:34 971:21 
85:19 455:21 465:25 482:17 602:25 701:22 748:29 997:16 
21:25 117:14 140:25 239:24 595:20 667:17 801:27 891:30 972:34 
67:31 113:16 376:25 395:26 427:29 526:25 562:25 766:21 946:25 992:21 
152:26 202:35 313:32 327:24 336:31 478:29 482:27 735:24 847:31 852:28 
6:28 14:25 138:25 218:31 270:28 457:31 477:33 542:24 805:32 826:21 
72:24 339:39 359:28 492:23 600:29 715:25 742:32 822:27 850:26 920:18 
138:33 324:24 612:21 666:22 844:26 
60:21 138:23 308:30 662:30 822:28 
76:22 172:30 200:25 250:26 313:24 324:20 349:24 443:35 445:26 559:34 595:21 668:22 704:29 709:14 741:27 923:25 925:22 
387:26 413:24 923:29 984:16 993:26 
113:34 144:29 154:25 366:27 474:23 691:20 742:24 919:32 
24:21 34:30 67:16 118:27 140:28 178:19 261:24 274:29 393:27 478:29 502:19 893:30 
34:12 56:28 111:20 328:18 445:27 489:38 542:20 613:27 721:24 810:27 828:19 
270:28 457:18 562:22 802:27 846:24 
42:29 186:30 220:35 267:35 448:32 
14:23 123:25 170:30 178:25 242:35 275:28 318:29 329:17 349:31 614:23 662:28 803:23 830:32 922:20 928:26 
134:30 358:30 420:34 455:19 479:21 522:23 544:30 557:31 677:20 692:19 795:32 
12:20 102:21 131:33 134:24 141:22 261:31 318:21 345:23 386:28 479:19 644:30 717:27 718:26 
41:23 160:25 207:34 331:29 368:28 408:23 425:27 448:33 589:22 641:26 778:25 958:33 
1:23 262:29 615:29 744:20 916:27 979:31 988:24 
5:36 26:23 221:23 293:26 295:23 554:27 601:29 659:33 677:26 735:22 739:24 958:30 
24:23 102:30 117:30 155:30 219:22 250:34 443:21 614:28 739:25 823:27 827:28 882:38 941:37 
108:27 323:29 941:24 959:25 987:22 
48:22 384:28 574:31 615:36 677:29 
99:30 128:24 227:22 261:30 380:29 492:31 507:13 586:33 619:17 676:24 813:23 918:23 
117:25 140:24 595:25 797:15 801:33 
831:20 889:32 912:28 980:38 
28:22 73:14 111:43 188:32 194:17 210:29 301:23 396:21 492:31 554:28 706:14 806:27 829:18 
18:22 113:26 144:34 162:21 187:23 245:24 258:21 313:28 390:31 416:34 457:28 567:28 588:29 601:27 632:13 672:29 886:30 919:22 941:30 987:36 
74:23 170:28 194:27 246:25 323:17 328:31 345:24 376:27 507:24 527:30 559:34 593:20 704:27 863:21 
34:23 122:28 162:32 187:28 221:23 236:33 308:19 344:33 406:29 500:25 566:29 596:28 599:24 654:34 741:24 773:34 831:28 860:24 879:23 909:33 997:31 
39:23 308:27 331:23 345:23 419:26 485:28 879:12 
56:25 72:29 86:23 186:37 292:24 328:28 423:26 478:32 544:21 623:30 709:28 822:23 
19:24 39:24 72:32 203:32 270:21 523:21 671:21 724:23 743:23 862:22 
81:28 112:34 408:29 542:19 552:42 563:26 615:31 769:23 857:24 966:38 
140:24 408:28 490:31 552:34 737:19 751:30 815:27 932:21 
194:20 241:22 406:36 549:22 614:26 724:24 792:30 833:31 931:30 
14:25 15:27 229:28 406:30 437:19 492:23 797:39 831:21 874:21 
23:29 28:31 129:22 185:21 323:27 489:28 543:32 653:37 664:23 686:21 889:22 920:29 
86:25 108:31 293:28 321:18 421:20 470:15 532:30 735:21 747:28 748:24 764:20 783:32 860:24 
2:29 14:23 104:23 162:24 308:35 349:26 401:33 451:23 514:35 566:31 593:35 861:24 984:17 
67:19 132:38 162:25 246:25 492:24 571:34 595:28 758:22 912:20 
48:22 63:22 67:20 111:31 115:25 335:29 406:23 479:24 526:35 659:21 862:23 878:23 893:28 946:34 
18:33 186:25 195:29 240:27 265:20 310:30 318:23 408:19 431:31 766:25 769:22 798:18 
6:29 42:21 90:21 154:17 308:18 344:27 345:27 395:27 610:26 692:34 857:28 886:21 
34:22 417:23 455:25 542:34 612:29 617:23 626:26 674:30 737:17 739:33 748:23 802:27 822:25 926:25 
48:26 162:23 203:29 210:22 329:34 351:29 370:29 408:28 473:25 595:20 616:38 732:20 829:30 852:35 
108:22 189:24 351:21 539:29 666:24 717:18 903:19 
10:37 26:29 141:25 178:21 221:25 239:31 308:27 396:19 618:40 932:31 
18:19 63:28 125:20 220:22 335:32 448:27 562:26 667:25 829:19 879:21 979:30 
0:27 132:24 170:25 230:33 376:19 587:21 776:35 805:25 827:26 852:21 905:24 
229:26 265:18 329:32 406:25 425:28 437:26 452:26 709:22 959:26 
10:30 24:28 302:21 366:23 400:24 560:27 664:30 741:27 748:21 825:27 895:24 
56:25 139:31 210:33 254:25 414:25 539:32 811:17 917:28 
49:28 188:17 318:33 623:24 723:26 809:27 830:24 848:26 944:30 945:29 
103:27 118:28 186:39 194:29 215:32 230:41 351:22 388:24 400:21 408:26 425:33 543:21 564:26 589:28 641:30 733:21 736:27 788:36 869:24 931:29 
93:31 218:18 268:24 326:37 376:28 614:21 633:28 773:22 954:19 
187:18 204:27 218:23 349:21 379:22 421:23 425:20 585:30 628:29 657:22 680:30 702:21 725:23 762:29 915:26 
6:15 97:35 195:30 301:22 382:26 433:17 448:31 761:26 925:29 
190:31 307:27 396:22 654:35 686:20 741:28 742:28 889:26 917:32 
285:25 319:27 394:31 
325:25 351:31 380:27 437:19 586:29 742:25 822:25 918:25 
18:30 99:29 168:27 277:24 496:26 523:31 664:25 809:26 
39:14 116:28 181:33 288:20 308:18 562:20 853:30 931:36 
141:32 249:32 359:19 396:21 428:29 618:26 855:31 
86:26 308:17 349:40 445:27 526:22 577:20 656:24 739:15 810:27 922:37 931:30 
199:22 482:18 589:27 620:19 683:21 741:30 
218:28 286:24 395:18 403:26 408:27 443:26 593:23 601:25 945:21 
142:35 258:29 377:25 554:21 852:26 
56:29 99:30 221:24 455:21 459:30 460:24 478:30 533:22 595:34 746:36 883:13 981:30 
56:15 139:19 210:32 254:23 338:17 414:24 589:24 666:24 749:25 852:38 915:29 917:27 
74:20 252:28 293:19 507:33 614:29 626:20 879:20 
18:23 170:27 185:26 187:24 331:26 443:21 487:29 886:35 
344:24 544:21 577:30 683:27 690:34 737:29 922:22 966:26 993:28 
46:25 322:23 400:24 545:23 792:32 829:24 883:22 
14:26 186:21 214:27 724:27 826:25 833:23 923:31 932:34 
179:32 232:21 304:25 595:24 626:31 687:22 831:25 951:25 
76:28 220:26 338:25 502:28 595:21 606:18 751:29 755:23 806:21 915:22 959:22 
18:28 108:25 261:34 349:23 472:24 550:35 741:24 764:26 868:25 
192:26 242:19 318:34 400:29 664:22 829:24 979:30 
148:30 472:27 704:25 739:21 769:30 774:28 918:37 
136:24 230:23 384:26 421:29 438:22 457:30 523:29 599:35 617:22 621:33 634:19 680:25 881:28 898:28 
30:29 48:25 175:32 232:29 446:32 521:29 612:26 654:37 886:20 980:28 
170:35 187:21 664:21 781:33 886:20 
138:19 220:25 308:30 408:27 438:28 443:24 675:28 709:15 742:24 801:23 822:32 972:25 
49:24 136:23 200:22 258:30 399:26 431:24 440:25 552:18 620:28 720:25 807:36 854:26 861:16 862:26 867:24 905:26 932:26 
72:29 240:24 460:32 526:26 599:22 646:38 662:23 699:29 920:25 
16:27 24:23 63:29 110:23 207:33 501:26 549:28 831:23 
68:24 141:30 186:31 315:24 321:20 335:31 492:28 595:25 659:26 737:29 794:24 799:25 867:23 917:38 981:30 
32:30 33:21 115:24 186:32 220:30 351:36 578:29 588:25 668:22 766:26 889:19 891:24 923:21 934:32 
108:33 242:21 322:24 331:24 593:22 631:29 641:19 712:17 945:31 
8:23 191:32 198:27 267:15 408:29 487:20 593:28 854:29 
18:34 51:26 261:21 390:23 424:25 458:27 507:30 588:24 639:31 770:29 862:23 886:32 
48:33 117:31 143:21 315:33 370:21 428:26 438:30 595:25 680:30 715:29 801:25 
170:24 233:20 273:23 277:25 351:30 521:33 662:31 812:25 819:25 844:28 946:33 980:32 
123:31 124:29 172:28 577:16 662:22 683:23 756:22 
182:22 390:37 536:26 605:20 633:24 691:17 704:33 
34:26 87:19 219:23 395:27 523:27 532:31 593:24 658:22 663:33 682:26 709:22 720:21 879:27 
18:26 99:28 110:30 175:25 185:32 187:25 221:27 233:19 244:26 475:28 653:25 751:24 774:21 934:35 941:19 
67:32 182:26 262:31 411:21 426:31 473:28 506:23 659:12 746:26 808:25 822:26 934:24 
32:37 170:21 172:27 259:24 290:22 474:25 478:30 521:17 558:36 611:29 709:32 742:34 766:27 783:31 792:21 812:25 850:38 858:29 
170:22 242:21 275:21 356:20 406:32 428:28 589:25 615:19 649:28 711:20 749:27 814:15 878:20 916:32 
67:19 339:24 498:25 521:26 861:27 981:25 992:30 
26:27 72:31 94:26 162:27 221:22 300:27 319:28 527:23 620:23 679:22 819:31 
394:32 553:27 709:28 979:33 
33:30 72:23 141:23 163:31 215:29 275:33 351:24 401:18 431:27 443:29 446:16 513:21 531:20 587:30 653:23 664:25 724:31 737:22 799:19 827:27 846:25 898:38 915:37 951:28 979:27 
184:16 215:32 247:25 258:22 507:32 550:24 608:27 852:33 938:17 
129:25 194:21 400:19 564:30 824:31 946:22 
111:27 182:29 308:35 615:28 702:27 
67:33 108:24 163:27 185:31 186:28 346:21 782:24 829:26 891:31 987:30 
86:18 190:28 313:25 321:22 429:27 448:28 478:25 507:24 720:32 737:31 751:28 842:22 944:30 
10:18 194:29 260:23 287:27 497:22 500:30 612:27 670:22 680:30 686:27 816:25 925:40 937:21 959:17 
63:30 108:28 132:20 138:24 261:30 263:24 298:26 378:23 403:28 477:28 917:33 932:24 
116:25 196:27 357:26 475:23 607:30 615:28 653:23 654:24 697:26 709:17 959:26 
154:19 186:27 389:26 479:23 589:23 750:18 801:23 828:29 854:30 912:33 
6:21 160:23 184:26 188:21 190:25 191:21 261:25 313:23 331:29 579:26 620:16 826:35 880:27 
3:22 8:20 67:25 178:24 479:21 808:23 
31:26 288:30 500:25 527:28 577:28 747:28 
39:25 78:22 108:21 494:22 504:25 587:27 624:22 737:34 878:24 891:24 920:31 945:27 
77:31 239:33 423:28 562:28 
86:24 124:30 162:19 568:21 690:24 737:35 740:24 852:30 920:24 
308:24 315:39 549:24 709:26 827:38 919:22 932:27 
446:29 726:30 831:33 
34:30 140:29 190:34 321:27 408:27 419:29 474:26 558:30 988:21 
42:29 108:19 170:24 199:30 239:27 319:30 321:24 352:23 455:30 607:25 616:35 709:25 718:17 733:30 770:26 
24:24 90:25 202:21 239:17 281:27 308:24 408:35 471:30 494:19 523:24 601:24 824:19 
706:24 725:20 889:29 946:29 
145:22 186:26 304:26 543:32 846:24 948:17 
41:20 60:47 91:15 142:21 309:29 390:19 614:27 635:18 645:22 783:34 790:24 846:26 850:33 970:25 984:26 
100:32 317:35 568:34 667:15 778:24 981:23 
210:31 514:26 550:31 701:33 
210:31 319:25 426:22 452:30 656:28 664:31 846:23 893:22 945:25 959:28 992:29 
30:26 355:19 617:34 664:24 690:26 
234:23 239:14 269:21 321:25 395:25 423:23 582:23 662:28 741:28 900:29 984:30 
67:25 181:28 628:18 979:25 
18:29 31:35 114:26 250:28 324:27 375:31 550:42 617:27 622:26 
14:29 266:34 277:19 545:21 632:26 757:26 848:30 910:33 934:24 945:21 
57:24 85:27 108:24 290:20 478:24 576:23 616:22 649:28 906:28 959:29 
14:24 154:33 305:25 366:27 409:19 550:26 566:17 601:32 639:25 664:28 669:31 734:23 917:36 
123:31 190:30 230:20 430:27 448:26 704:38 774:28 799:41 946:31 
218:27 322:27 470:25 514:23 545:25 701:27 709:36 746:28 875:26 
108:17 195:32 376:30 
94:30 167:27 179:30 190:26 308:19 342:40 436:29 462:18 593:24 599:20 630:34 656:32 692:24 709:26 917:24 959:29 
347:29 401:28 406:30 422:29 552:25 595:28 636:22 643:31 649:27 820:15 
1:29 170:25 313:30 349:31 368:20 599:30 605:30 662:33 668:23 704:31 717:29 744:16 813:16 822:23 846:33 850:29 870:33 
268:32 322:22 443:24 458:29 504:23 531:25 592:23 768:22 802:28 
16:25 84:35 99:25 186:34 321:25 423:22 577:19 582:22 597:29 607:26 720:25 730:18 748:33 754:25 873:25 875:20 900:20 958:21 978:25 
6:20 26:29 202:21 274:22 427:25 448:26 513:24 595:19 779:21 846:29 850:29 917:32 923:26 
20:16 86:30 132:35 229:33 230:31 277:36 335:26 351:26 441:27 544:26 817:22 869:31 
42:30 324:26 470:22 492:29 826:26 878:21 880:19 
21:35 366:20 659:23 827:20 862:19 867:30 914:30 973:39 
14:27 32:27 141:28 241:38 261:22 319:29 426:23 458:10 478:24 485:30 582:37 595:23 605:26 615:28 663:31 828:28 858:26 
18:19 194:21 252:20 400:27 567:31 615:27 619:26 692:22 796:31 827:24 831:21 850:30 857:26 
39:28 60:21 423:12 437:25 677:24 751:14 861:24 
180:33 253:39 518:31 525:27 665:17 749:24 795:30 843:26 
90:21 170:33 202:35 239:21 281:34 314:22 366:24 400:23 408:26 419:22 512:25 523:28 601:25 622:33 917:26 
141:20 146:30 182:21 351:27 390:36 536:31 605:26 633:30 691:26 704:23 737:33 
10:26 161:17 196:22 305:40 358:20 406:22 408:31 458:29 470:27 545:21 603:28 641:19 702:30 756:31 896:31 989:28 
37:25 170:24 308:35 313:33 427:28 815:25 
152:27 195:24 203:20 301:30 614:19 620:26 656:30 720:22 915:37 931:29 
431:28 504:25 526:20 601:25 709:29 
26:19 43:22 239:19 349:33 778:23 812:26 914:26 
20:24 74:30 170:29 376:17 409:22 431:24 514:31 559:23 649:22 704:25 854:24 
15:19 32:20 57:27 72:21 305:27 321:27 783:19 
232:17 365:24 524:24 659:31 709:24 898:34 
34:36 202:23 349:31 395:44 409:19 419:29 778:30 844:29 
18:28 56:25 60:27 166:25 172:20 210:25 261:22 555:23 622:26 692:19 866:22 893:21 939:25 992:31 
110:18 192:23 329:26 334:18 495:27 507:28 595:31 654:31 657:30 688:26 690:29 788:19 852:31 861:30 894:37 952:27 
28:23 108:28 154:31 321:19 524:23 621:33 663:28 822:19 963:37 
5:29 121:25 141:26 221:35 239:30 378:28 645:27 688:22 699:26 750:31 824:21 
595:35 605:24 915:18 
2:26 26:21 43:29 194:27 406:28 408:30 566:35 602:30 739:30 869:31 899:28 
5:29 186:20 473:34 504:26 587:27 595:29 711:37 803:30 932:29 979:22 
14:27 15:23 102:28 117:27 288:23 307:24 308:32 359:23 448:24 620:23 625:22 703:35 774:31 802:25 853:23 
102:30 135:31 448:25 478:24 504:27 709:19 959:23 
93:24 108:28 186:19 202:28 248:28 275:25 441:24 490:32 724:26 821:17 826:17 875:44 946:20 952:19 
186:18 277:23 376:27 648:21 653:23 733:20 749:22 822:30 
102:28 155:26 589:32 614:23 640:31 733:24 747:21 827:21 
30:30 67:23 186:23 308:19 321:33 336:29 413:26 438:23 533:25 539:29 805:27 851:22 857:18 858:26 875:26 973:26 
18:30 110:21 241:22 562:38 690:23 
6:31 28:22 187:22 301:29 315:26 412:19 587:22 680:24 737:28 741:26 
49:36 90:20 240:21 329:28 472:21 609:22 645:17 692:21 916:31 
19:22 293:29 396:17 406:23 408:25 507:29 579:28 602:29 653:27 671:27 837:25 878:30 947:23 
74:30 140:25 226:30 234:23 321:19 433:30 524:28 585:30 615:22 623:27 676:23 709:19 772:27 
241:25 275:21 277:36 321:32 324:28 390:36 395:18 419:30 427:27 524:27 916:27 
91:25 322:29 351:35 402:24 516:37 607:24 751:25 850:30 914:18 938:18 
91:25 170:22 721:26 829:16 992:26 
102:24 207:21 297:24 363:23 364:28 419:21 430:26 445:26 507:28 524:34 595:27 826:29 959:29 
77:16 82:30 98:26 115:19 240:19 302:24 319:32 335:23 344:21 364:25 632:26 662:24 
67:29 219:27 305:24 307:25 449:19 496:29 542:30 567:27 589:25 615:22 712:22 733:30 741:30 792:27 852:21 898:27 915:30 
2:24 102:30 141:23 159:18 187:22 261:26 402:27 532:32 667:23 737:33 862:30 898:29 974:32 
248:35 298:30 376:32 561:25 574:25 672:30 858:18 908:23 945:12 992:24 
28:26 136:22 593:32 
44:28 67:30 141:31 159:21 288:28 550:31 577:30 
12:32 87:31 108:23 199:30 313:36 370:23 492:29 597:30 628:32 725:25 737:27 994:28 
24:26 32:21 186:25 292:28 417:14 425:16 429:25 471:21 550:29 558:27 600:28 653:23 790:22 797:26 805:26 
18:22 67:20 118:35 321:27 365:21 465:24 636:33 704:29 774:26 806:29 822:19 
187:22 279:22 321:28 339:31 431:26 545:34 822:27 990:27 
334:25 345:32 504:29 559:21 869:27 
166:24 185:29 269:26 277:36 406:32 461:24 550:21 663:20 679:29 680:26 692:23 946:30 
161:20 178:28 242:28 323:28 329:25 394:24 554:26 662:22 879:24 928:24 959:31 964:23 
308:25 345:24 505:29 523:25 542:30 653:28 657:17 663:23 783:36 851:30 
99:28 221:20 396:32 455:30 460:26 478:39 494:19 533:27 869:23 883:20 992:24 
187:36 204:28 585:34 702:29 915:22 
43:26 72:24 100:31 117:29 353:24 566:29 624:24 628:22 751:20 783:25 824:26 892:26 944:40 980:21 
375:17 571:26 970:29 
60:21 119:27 180:31 345:28 741:27 915:26 
43:21 111:19 544:19 545:23 554:24 595:34 749:25 868:23 874:21 
14:30 69:22 161:20 283:26 388:23 396:23 416:19 523:19 593:20 678:31 739:25 800:27 898:19 939:33 
246:24 273:29 357:21 593:24 725:20 768:22 773:27 898:25 
5:14 83:16 186:25 349:20 375:26 406:35 443:31 504:25 880:25 932:22 
14:20 76:25 179:31 218:26 308:15 342:27 438:29 446:28 462:28 544:26 575:23 599:25 709:22 828:24 874:24 889:26 932:28 
43:34 76:16 90:20 184:18 185:29 186:27 215:20 318:26 331:16 338:26 456:25 513:29 601:37 614:26 739:29 896:22 905:30 
45:31 60:25 86:23 261:29 408:25 435:24 474:33 504:25 558:23 612:33 632:30 686:22 725:32 739:22 966:30 
32:19 42:20 90:26 103:26 147:26 692:20 857:30 886:26 948:25 992:32 
117:37 967:26 
56:26 322:27 349:27 523:26 565:26 656:37 657:24 992:30 
138:17 220:24 408:25 443:24 742:25 801:32 972:33 
60:27 275:28 423:31 437:19 794:26 916:21 
86:25 136:22 279:30 545:34 597:31 834:19 946:24 
14:30 63:29 248:32 326:29 403:28 464:25 542:29 623:26 667:30 680:23 768:22 783:23 846:33 963:23 
46:38 210:31 267:22 409:24 479:28 501:27 567:27 724:26 821:30 
46:44 152:28 523:39 900:35 
14:25 43:40 143:31 197:29 279:24 308:26 338:16 491:24 802:27 891:28 928:27 959:19 
44:22 108:31 318:25 403:29 422:26 957:24 992:24 
108:26 185:26 316:24 427:31 457:30 589:25 735:28 
14:25 111:25 140:27 249:26 328:30 720:22 856:28 889:22 
24:22 39:30 48:26 60:22 100:23 162:24 194:22 215:24 229:32 245:24 286:29 345:29 385:29 424:24 601:23 868:16 
19:20 720:21 979:22 
2:20 42:32 192:23 308:36 309:39 459:26 498:27 614:26 869:25 916:19 964:24 
5:25 48:31 86:32 187:23 222:35 254:25 258:25 420:21 731:29 857:25 901:21 919:28 941:23 952:31 
129:29 276:30 301:25 310:23 446:27 489:34 551:27 612:20 664:26 685:21 709:34 730:28 853:24 889:31 920:31 959:19 
131:24 170:21 186:19 270:20 376:21 524:24 578:25 632:25 644:21 645:27 650:32 717:25 718:20 724:29 910:25 
6:30 108:27 117:23 154:27 229:31 403:22 414:26 755:25 821:20 837:27 
49:31 56:21 204:23 229:30 344:23 376:35 406:32 409:28 492:23 583:24 653:31 792:22 
102:35 118:22 162:26 240:31 308:31 395:24 447:18 566:27 
108:30 265:27 773:27 920:28 945:26 
76:29 110:24 254:32 408:42 419:23 438:26 576:21 587:17 672:29 704:26 738:26 746:29 807:20 808:25 959:23 991:28 
107:32 190:24 253:23 318:22 322:25 324:33 330:33 351:27 376:21 419:25 521:33 653:31 690:27 741:23 746:18 779:16 851:21 977:27 
776:30 791:31 866:29 881:28 898:26 
37:20 78:27 81:23 98:27 389:26 445:23 513:33 859:24 886:23 
63:31 111:24 136:23 183:23 414:22 492:18 527:17 562:19 798:20 807:26 
56:27 209:28 322:28 349:23 523:27 565:35 656:32 657:22 992:30 
2:26 67:22 141:30 422:33 440:23 628:26 
23:20 41:22 81:21 143:20 258:21 265:22 349:29 350:28 390:27 478:30 485:35 563:26 577:34 617:32 679:32 694:21 723:29 791:25 878:24 889:29 
204:28 221:22 330:20 376:17 390:28 449:31 521:30 524:25 577:30 751:20 
8:22 345:28 356:26 485:30 608:17 656:24 719:24 874:29 889:21 901:23 
191:22 194:33 210:25 431:35 478:25 649:14 701:25 827:20 833:21 842:25 945:24 
21:33 111:18 161:21 163:26 478:26 523:29 583:32 608:41 641:27 652:26 703:31 742:20 744:25 778:29 781:23 783:19 879:26 912:30 967:28 
15:30 162:24 473:26 532:19 624:20 671:32 680:27 721:16 850:17 
172:25 307:29 321:27 474:24 593:34 649:22 746:19 815:27 944:19 
419:26 512:25 552:28 605:27 612:26 824:24 828:27 
33:29 110:32 113:29 199:21 218:25 428:32 593:30 635:25 748:21 826:23 
20:23 186:21 247:30 310:25 348:37 388:24 489:29 507:24 577:17 621:25 681:25 967:29 
0:27 102:24 186:27 195:26 254:27 501:23 563:26 919:23 925:38 
21:24 23:31 86:23 185:21 189:25 205:30 322:26 557:29 577:32 
111:34 195:17 321:21 328:28 376:21 576:26 645:18 648:28 737:27 739:22 773:28 802:38 923:32 967:31 
108:29 170:22 172:25 183:23 265:26 271:26 290:27 389:32 422:29 478:26 558:24 741:28 742:24 766:17 850:32 
61:28 250:27 308:26 319:27 331:26 446:19 479:26 567:17 593:24 600:25 951:28 978:14 
270:26 335:28 668:18 728:24 821:28 829:26 967:26 
2:23 89:17 250:23 323:24 427:30 490:27 497:25 599:28 842:27 881:24 
86:30 149:30 310:28 429:41 526:23 584:22 654:26 746:28 930:25 944:24 
263:24 406:27 473:25 787:29 987:27 
21:23 73:28 86:28 163:30 170:29 358:23 408:31 663:17 704:28 733:38 775:22 783:26 
292:30 366:17 569:19 598:22 641:17 718:23 750:29 833:24 932:23 941:26 
6:31 375:31 399:28 485:26 609:30 616:23 668:28 739:40 
155:30 315:24 321:28 408:26 507:20 515:25 558:27 707:18 780:23 783:21 852:32 
